<svg width="16" height="16" viewBox="0 0 16 16" fill="none"
  xmlns="http://www.w3.org/2000/svg">
  <path d="M2 4C2 3.44772 2.44772 3 3 3H12C12.5523 3 13 3.44772 13 4V10H2V4Z" fill="white" fill-opacity="0.3"/>
  <path fill-rule="evenodd" clip-rule="evenodd" d="M2 7C2 6.44772 2.44772 6 3 6H6C6.55228 6 7 6.44772 7 7V10H13V12C13 12.5523 12.5523 13 12 13H7H3C2.44772 13 2 12.5523 2 12V7ZM9 7.5C9 7.22386 9.22386 7 9.5 7H11.5C11.7761 7 12 7.22386 12 7.5V9H13V7.5C13 6.67157 12.3284 6 11.5 6H9.5C8.67157 6 8 6.67157 8 7.5V9H9V7.5Z" fill="white"/>
</svg>
