<svg width="25" height="24" viewBox="0 0 25 24" fill="none"
  xmlns="http://www.w3.org/2000/svg">
  <path fill-rule="evenodd" clip-rule="evenodd" d="M11.5 1.26795C12.1188 0.910684 12.8812 0.910683 13.5 1.26795L21.5 5.88675C22.1188 6.24402 22.5 6.90427 22.5 7.6188V16.8564C22.5 17.5709 22.1188 18.2312 21.5 18.5885L14 22.9186C13.0718 23.4545 11.9282 23.4545 11 22.9186L3.5 18.5885C2.8812 18.2312 2.5 17.5709 2.5 16.8564V7.6188C2.5 6.90427 2.8812 6.24402 3.5 5.88675L11.5 1.26795ZM12.5 3L19.3556 6.95806L13.0145 10.7627C12.6978 10.9527 12.3022 10.9527 11.9855 10.7627L5.64443 6.95806L12.5 3ZM4.5 16.8564V8.60379L10.9565 12.4777C11.1307 12.5822 11.3128 12.6675 11.5 12.7337V20.8979L4.5 16.8564ZM13.5 20.8979L20.5 16.8564V8.60379L14.0435 12.4777C13.8693 12.5822 13.6872 12.6675 13.5 12.7337V20.8979Z" fill="#525C66"/>
</svg>
