<svg width="16" height="17" viewBox="0 0 16 17" fill="none"
  xmlns="http://www.w3.org/2000/svg">
  <path fill-rule="evenodd" clip-rule="evenodd" d="M11.3517 0.128357L15.9142 4.69085L4.58383 16.0213H0.0213318V11.4588L11.3517 0.128357ZM3.7554 14.0213L13.0858 4.69085L11.3518 2.95679L2.02133 12.2872L2.02133 14.0213H3.7554ZM16 14H10V16H16V14Z" fill="#0D1826"/>
</svg>
