<svg width="24" height="24" viewBox="0 0 24 24" fill="none"
  xmlns="http://www.w3.org/2000/svg">
  <path fill-rule="evenodd" clip-rule="evenodd" d="M18.0042 10.9962L18.247 11.2389L20.0042 12.9962H18V13H3V11H15.1796L15.1758 10.9962L11.5938 7.41421L13.008 6L18.0042 10.9962Z" fill="#0D1826"/>
</svg>
