<svg width="24" height="24" viewBox="0 0 24 24" fill="none"
  xmlns="http://www.w3.org/2000/svg">
  <path fill-rule="evenodd" clip-rule="evenodd" d="M13 6H11V11H6L6 13H11V18H13V13H18V11H13V6Z" fill="currentColor"/>
</svg>
