<svg width="24" height="24" viewBox="0 0 24 24" fill="none"
    xmlns="http://www.w3.org/2000/svg">
    <path fill-rule="evenodd" clip-rule="evenodd" d="M15 4H20V9H15V4ZM13 11V2H22V11H13ZM4 15H9V20H4V15ZM2 22V13H11V22H2ZM2 2V11H11V2H2ZM13 22V13H22V22H13Z" fill="currentColor"/>
</svg>