<svg width="24" height="24" viewBox="0 0 24 24" fill="none"
  xmlns="http://www.w3.org/2000/svg">
  <path fill-rule="evenodd" clip-rule="evenodd" d="M11.9567 2.80638L5.19541 6.52507L13 10.9151V20.6675L20 16.8175V7.63238L11.9567 2.80638ZM22 6.5L12 0.5L2 6V18L12 23.5L22 18V6.5Z" fill="currentColor"/>
</svg>
