<svg width="24" height="24" viewBox="0 0 24 24" fill="none"
  xmlns="http://www.w3.org/2000/svg">
  <path fill-rule="evenodd" clip-rule="evenodd" d="M13 21H11L11 15V9V3L13 3L13 9V15V21ZM15 15L15 23H9L9 15H1V9H9L9 1H15L15 9H23V15H15ZM15 11V13H21V11H15ZM9 11H3V13H9V11Z" fill="currentColor"/>
</svg>
