<svg width="24" height="24" viewBox="0 0 24 24" fill="none"
  xmlns="http://www.w3.org/2000/svg">
  <path fill-rule="evenodd" clip-rule="evenodd" d="M21 3H3V21H21V3ZM19 5H5V9H19V5ZM5 19V11H9L9 19H5ZM11 19H19V11H11V19Z" fill="#0D1826"/>
</svg>
