<svg width="24" height="24" viewBox="0 0 24 24" fill="none"
  xmlns="http://www.w3.org/2000/svg">
  <path fill-rule="evenodd" clip-rule="evenodd" d="M5.70711 4.29289L7.80783 6.39362C8.97641 5.5184 10.4277 5 12 5C13.5723 5 15.0236 5.5184 16.1922 6.39362L18.2929 4.29289C18.6834 3.90237 19.3166 3.90237 19.7071 4.29289C20.0976 4.68342 20.0976 5.31658 19.7071 5.70711L17.6064 7.80783C18.4816 8.97641 19 10.4277 19 12C19 13.5723 18.4816 15.0236 17.6064 16.1922L19.7071 18.2929C20.0976 18.6834 20.0976 19.3166 19.7071 19.7071C19.3166 20.0976 18.6834 20.0976 18.2929 19.7071L16.1922 17.6064C15.0236 18.4816 13.5723 19 12 19C10.4277 19 8.97641 18.4816 7.80783 17.6064L5.70711 19.7071C5.31658 20.0976 4.68342 20.0976 4.29289 19.7071C3.90237 19.3166 3.90237 18.6834 4.29289 18.2929L6.39362 16.1922C5.5184 15.0236 5 13.5723 5 12C5 10.4277 5.5184 8.97641 6.39362 7.80783L4.29289 5.70711C3.90237 5.31658 3.90237 4.68342 4.29289 4.29289C4.68342 3.90237 5.31658 3.90237 5.70711 4.29289ZM12 17C14.7614 17 17 14.7614 17 12C17 9.23858 14.7614 7 12 7C9.23858 7 7 9.23858 7 12C7 14.7614 9.23858 17 12 17Z" fill="currentColor"/>
</svg>
