<svg width="24" height="24" viewBox="0 0 24 24" fill="none"
  xmlns="http://www.w3.org/2000/svg">
  <path fill-rule="evenodd" clip-rule="evenodd" d="M6.20711 5.29289C5.81658 4.90237 5.18342 4.90237 4.79289 5.29289C4.40237 5.68342 4.40237 6.31658 4.79289 6.70711L10.0858 12L4.79289 17.2929C4.40237 17.6834 4.40237 18.3166 4.79289 18.7071C5.18342 19.0976 5.81658 19.0976 6.20711 18.7071L12.2071 12.7071C12.5976 12.3166 12.5976 11.6834 12.2071 11.2929L6.20711 5.29289ZM13 17C12.4477 17 12 17.4477 12 18C12 18.5523 12.4477 19 13 19H19C19.5523 19 20 18.5523 20 18C20 17.4477 19.5523 17 19 17H13Z" fill="currentColor"/>
</svg>
