<svg width="25" height="24" viewBox="0 0 25 24" fill="none"
  xmlns="http://www.w3.org/2000/svg">
  <path fill-rule="evenodd" clip-rule="evenodd" d="M4.5 1C4.5 0.447715 4.94772 0 5.5 0H19.5C20.0523 0 20.5 0.447715 20.5 1C20.5 1.55228 20.0523 2 19.5 2H5.5C4.94772 2 4.5 1.55228 4.5 1ZM2.5 6C2.5 4.89543 3.39543 4 4.5 4H20.5C21.6046 4 22.5 4.89543 22.5 6V22C22.5 23.1046 21.6046 24 20.5 24H4.5C3.39543 24 2.5 23.1046 2.5 22V6ZM8.5 7.5C8.5 6.94772 8.94772 6.5 9.5 6.5H15.5C16.0523 6.5 16.5 6.94772 16.5 7.5C16.5 8.05228 16.0523 8.5 15.5 8.5H9.5C8.94772 8.5 8.5 8.05228 8.5 7.5ZM7.5 10C6.94772 10 6.5 10.4477 6.5 11C6.5 11.5523 6.94772 12 7.5 12H7.61111V18.7778C7.61111 19.3377 7.83353 19.8746 8.22944 20.2706C8.62535 20.6665 9.16231 20.8889 9.72222 20.8889H15.2778C15.8377 20.8889 16.3746 20.6665 16.7706 20.2706C17.1665 19.8746 17.3889 19.3377 17.3889 18.7778V12H17.5C18.0523 12 18.5 11.5523 18.5 11C18.5 10.4477 18.0523 10 17.5 10H16.3889H8.61111H7.5ZM15.3889 12H9.61111V18.7778C9.61111 18.8072 9.62281 18.8355 9.64365 18.8563C9.66449 18.8772 9.69275 18.8889 9.72222 18.8889H15.2778C15.3072 18.8889 15.3355 18.8772 15.3563 18.8563C15.3772 18.8355 15.3889 18.8072 15.3889 18.7778V12Z" fill="currentColor"/>
</svg>
