<svg width="8" height="8" viewBox="0 0 8 8" fill="none"
  xmlns="http://www.w3.org/2000/svg">
  <g clip-path="url(#clip0)">
    <path fill-rule="evenodd" clip-rule="evenodd" d="M4.00389 1.294L4.00789 1.29001L8.00202 5.28414L6.58781 6.69835L4.00782 4.11837L1.42 6.70619L0.0057832 5.29198L4.00382 1.29394L4.00389 1.294Z" fill="#0D1826"/>
  </g>
  <defs>
    <clipPath id="clip0">
      <rect width="8" height="8" fill="white"/>
    </clipPath>
  </defs>
</svg>
