[
  {
    "createdAt": "2021-02-05T03:54:39.505Z",
    "updatedAt": "2021-02-05T03:54:39.505Z",
    "name": "object_name",
    "displayName": "Object ID",
    "description": null,
    "isSystemDefault": true,
    "id": "fld_vvACwdGZQZQ9hsUmgC32Wx",
    "isRequired": true,
    "attributes": { "subType": "short", "isSearchable": true, "isSortable": true },
    "value": null,
    "dataType": {
      "createdAt": "2021-01-14T11:17:57.196Z",
      "updatedAt": "2021-01-14T11:17:57.196Z",
      "name": "text",
      "displayName": "Text",
      "description": "Allows users to enter any combination of letters and numbers.",
      "systemType": "text",
      "validateScript": "",
      "attributes": { "subTypes": ["short", "long"] }
    },
    "object": {
      "createdAt": "2021-02-05T03:54:39.505Z",
      "updatedAt": "2021-02-05T03:54:39.505Z",
      "name": "layout",
      "displayName": "Layout",
      "description": null,
      "isSystemDefault": true
    }
  },
  {
    "createdAt": "2021-02-05T03:54:39.505Z",
    "updatedAt": "2021-02-05T03:54:39.505Z",
    "name": "layout_name",
    "displayName": "Layout Name",
    "description": null,
    "isSystemDefault": true,
    "id": "fld_fkXXzeWusmEec1zWgX7C2A",
    "isRequired": false,
    "attributes": { "subType": "short", "isSearchable": true, "isSortable": true },
    "value": null,
    "dataType": {
      "createdAt": "2021-01-14T11:17:57.196Z",
      "updatedAt": "2021-01-14T11:17:57.196Z",
      "name": "text",
      "displayName": "Text",
      "description": "Allows users to enter any combination of letters and numbers.",
      "systemType": "text",
      "validateScript": "",
      "attributes": { "subTypes": ["short", "long"] }
    },
    "object": {
      "createdAt": "2021-02-05T03:54:39.505Z",
      "updatedAt": "2021-02-05T03:54:39.505Z",
      "name": "layout",
      "displayName": "Layout",
      "description": null,
      "isSystemDefault": true
    }
  },
  {
    "createdAt": "2021-02-05T03:54:39.505Z",
    "updatedAt": "2021-02-05T03:54:39.505Z",
    "name": "layout_script",
    "displayName": "Layout Script",
    "description": null,
    "isSystemDefault": true,
    "id": "fld_8g58Xzk16shHrupLDrrqdY",
    "isRequired": false,
    "attributes": { "subType": "long", "isSearchable": true, "isSortable": false },
    "value": null,
    "dataType": {
      "createdAt": "2021-01-14T11:17:57.196Z",
      "updatedAt": "2021-01-14T11:17:57.196Z",
      "name": "text",
      "displayName": "Text",
      "description": "Allows users to enter any combination of letters and numbers.",
      "systemType": "text",
      "validateScript": "",
      "attributes": { "subTypes": ["short", "long"] }
    },
    "object": {
      "createdAt": "2021-02-05T03:54:39.505Z",
      "updatedAt": "2021-02-05T03:54:39.505Z",
      "name": "layout",
      "displayName": "Layout",
      "description": null,
      "isSystemDefault": true
    }
  },
  {
    "createdAt": "2021-02-05T03:54:39.505Z",
    "updatedAt": "2021-02-05T03:54:39.505Z",
    "name": "fields",
    "displayName": "List Of Used Fields",
    "description": null,
    "isSystemDefault": true,
    "id": "fld_2ADqKgjaQ6T499Et7QNdrA",
    "isRequired": false,
    "attributes": { "subType": "long", "isSearchable": true, "isSortable": false },
    "value": null,
    "dataType": {
      "createdAt": "2021-01-14T11:17:57.196Z",
      "updatedAt": "2021-01-14T11:17:57.196Z",
      "name": "text",
      "displayName": "Text",
      "description": "Allows users to enter any combination of letters and numbers.",
      "systemType": "text",
      "validateScript": "",
      "attributes": { "subTypes": ["short", "long"] }
    },
    "object": {
      "createdAt": "2021-02-05T03:54:39.505Z",
      "updatedAt": "2021-02-05T03:54:39.505Z",
      "name": "layout",
      "displayName": "Layout",
      "description": null,
      "isSystemDefault": true
    }
  },
  {
    "createdAt": "2021-02-05T03:54:39.505Z",
    "updatedAt": "2021-02-05T03:54:39.505Z",
    "name": "layout_type",
    "displayName": "Layout Type",
    "description": null,
    "isSystemDefault": true,
    "id": "fld_2NM3V4uRrgSe5QF9gBhKvB",
    "isRequired": false,
    "attributes": { "subType": "single", "isSearchable": true, "isSortable": true },
    "value": "[\"detail\", \"list\"]",
    "dataType": {
      "createdAt": "2021-01-14T11:17:57.196Z",
      "updatedAt": "2021-01-14T11:17:57.196Z",
      "name": "pickList",
      "displayName": "Pick List",
      "description": "Allows users to select a value from a list you define.",
      "systemType": "pickList",
      "validateScript": "",
      "attributes": { "subTypes": ["single", "multi"] }
    },
    "object": {
      "createdAt": "2021-02-05T03:54:39.505Z",
      "updatedAt": "2021-02-05T03:54:39.505Z",
      "name": "layout",
      "displayName": "Layout",
      "description": null,
      "isSystemDefault": true
    }
  },
  {
    "createdAt": "2021-02-05T03:54:39.505Z",
    "updatedAt": "2021-02-05T03:54:39.505Z",
    "name": "is_active",
    "displayName": "Is Active",
    "description": null,
    "isSystemDefault": true,
    "id": "fld_efj3msCrW9THWQ2P8PAqxm",
    "isRequired": false,
    "attributes": { "defaultValue": "true", "isSearchable": false, "isSortable": true },
    "value": null,
    "dataType": {
      "createdAt": "2021-01-14T11:17:57.196Z",
      "updatedAt": "2021-01-14T11:17:57.196Z",
      "name": "boolean",
      "displayName": "Checkbox",
      "description": "Allows users to select a True (checked) or False (unchecked) value.",
      "systemType": "boolean",
      "validateScript": "",
      "attributes": {}
    },
    "object": {
      "createdAt": "2021-02-05T03:54:39.505Z",
      "updatedAt": "2021-02-05T03:54:39.505Z",
      "name": "layout",
      "displayName": "Layout",
      "description": null,
      "isSystemDefault": true
    }
  }
]
