<svg width="25" height="24" viewBox="0 0 25 24" fill="none"
  xmlns="http://www.w3.org/2000/svg">
  <path fill-rule="evenodd" clip-rule="evenodd" d="M2.5 6C2.5 5.44772 2.94772 5 3.5 5H21.5C22.0523 5 22.5 5.44772 22.5 6C22.5 6.55228 22.0523 7 21.5 7H3.5C2.94772 7 2.5 6.55228 2.5 6ZM2.5 12C2.5 11.4477 2.94772 11 3.5 11H13.5C14.0523 11 14.5 11.4477 14.5 12C14.5 12.5523 14.0523 13 13.5 13H3.5C2.94772 13 2.5 12.5523 2.5 12ZM3.5 17C2.94772 17 2.5 17.4477 2.5 18C2.5 18.5523 2.94772 19 3.5 19H17.5C18.0523 19 18.5 18.5523 18.5 18C18.5 17.4477 18.0523 17 17.5 17H3.5Z" fill="#525C66"/>
</svg>
