<svg width="16" height="16" viewBox="0 0 16 16" fill="none"
  xmlns="http://www.w3.org/2000/svg">
  <path fill-rule="evenodd" clip-rule="evenodd" d="M3.5 2V14L12.5 8L3.5 2ZM4.5 3.86852V12.1315L10.6972 8L4.5 3.86852Z" fill="#0D1826"/>
</svg>
