<svg width="16" height="16" viewBox="0 0 16 16" fill="none"
  xmlns="http://www.w3.org/2000/svg">
  <path fill-rule="evenodd" clip-rule="evenodd" d="M11.7929 5.5H7C5.067 5.5 3.5 7.067 3.5 9V14H2.5V9C2.5 6.51472 4.51472 4.5 7 4.5H11.7929L9.64645 2.35356L10.3536 1.64645L13.7071 5.00001L10.3536 8.35356L9.64645 7.64645L11.7929 5.5Z" fill="#0D1826"/>
</svg>
