<svg width="16" height="16" viewBox="0 0 16 16" fill="none"
  xmlns="http://www.w3.org/2000/svg">
  <path fill-rule="evenodd" clip-rule="evenodd" d="M4.2071 4.5L6.35354 2.35356L5.64643 1.64645L2.29288 5.00001L5.64643 8.35356L6.35354 7.64645L4.20708 5.5H8.99999C10.933 5.5 12.5 7.067 12.5 9V14H13.5V9C13.5 6.51472 11.4853 4.5 8.99999 4.5H4.2071Z" fill="#0D1826"/>
</svg>
