<svg width="40" height="40" viewBox="0 0 40 40" fill="none"
  xmlns="http://www.w3.org/2000/svg">
  <path fill-rule="evenodd" clip-rule="evenodd" d="M32 8H8V32H32V8ZM30 10H10V30H30V10Z" fill="#EDEEF0"/>
  <path fill-rule="evenodd" clip-rule="evenodd" d="M18.3072 24.1115L18.3032 24.1155L14 19.8123L15.4142 18.3981L18.3033 21.2872L24.5905 15L26.0047 16.4142L18.3073 24.1116L18.3072 24.1115Z" fill="#0D1826"/>
</svg>
