<svg width="40" height="40" viewBox="0 0 40 40" fill="none"
  xmlns="http://www.w3.org/2000/svg">
  <path fill-rule="evenodd" clip-rule="evenodd" d="M32 8H8V32H32V8ZM30 10H10V30H30V10Z" fill="#EDEEF0"/>
  <path fill-rule="evenodd" clip-rule="evenodd" d="M19.9981 23.702L19.9941 23.706L13.9995 17.7113L15.4137 16.2971L19.9942 20.8776L24.5818 16.29L25.996 17.7042L19.9982 23.702L19.9981 23.702Z" fill="#0D1826"/>
</svg>
