<svg width="16" height="16" viewBox="0 0 16 16" fill="none"
  xmlns="http://www.w3.org/2000/svg">
  <path d="M1 4H15" stroke="#0D1826"/>
  <path d="M1 8H15" stroke="#0D1826"/>
  <path d="M1 12H15" stroke="#0D1826"/>
</svg>
